{
  "project_info": {
    "project_number": "998661949563",
    "firebase_url": "https://stars4all-5e74f.firebaseio.com",
    "project_id": "stars4all-5e74f",
    "storage_bucket": "stars4all-5e74f.appspot.com"
  },
  "client": [
    {
      "client_info": {
        "mobilesdk_app_id": "1:998661949563:android:f8a08f71921ab7ef",
        "android_client_info": {
          "package_name": "es.upm.cazasteroides"
        }
      },
      "oauth_client": [
        {
          "client_id": "998661949563-gljg0gjhivpf3omp97asdj7ei3p6004i.apps.googleusercontent.com",
          "client_type": 3
        }
      ],
      "api_key": [
        {
          "current_key": "AIzaSyBSGCs8xoZNkYZ-KAKTuG3F0FPC0_Py66Q"
        }
      ],
      "services": {
        "analytics_service": {
          "status": 1
        },
        "appinvite_service": {
          "status": 1,
          "other_platform_oauth_client": []
        },
        "ads_service": {
          "status": 2
        }
      }
    }
  ],
  "configuration_version": "1"
}